%YAML 1.1
%TAG !u! tag:unity3d.com,2011:
--- !u!78 &1
TagManager:
  serializedVersion: 2
  tags:
  - Enemy
  - Turret
  layers:
  - Default
  - TransparentFX
  - Ignore Raycast
  - 
  - Water
  - UI
  - 
  - 
  - Ground
  - Planes
  - 
  - Turret
  - EnemyProjectile
  - AllyProjectile
  - 
  - AllyBullets
  - EnemyBullets
  - 
  - 
  - 
  - 
  - 
  - 
  - 
  - 
  - 
  - 
  - 
  - 
  - 
  - 
  - 
  m_SortingLayers:
  - name: Background
    uniqueID: 2999427841
    locked: 0
  - name: Default
    uniqueID: 0
    locked: 0
  - name: Turret
    uniqueID: 4028651693
    locked: 0
  - name: Foreground
    uniqueID: 1455046949
    locked: 0
