%YAML 1.1
%TAG !u! tag:unity3d.com,2011:
--- !u!29 &1
OcclusionCullingSettings:
  m_ObjectHideFlags: 0
  serializedVersion: 2
  m_OcclusionBakeSettings:
    smallestOccluder: 5
    smallestHole: 0.25
    backfaceThreshold: 100
  m_SceneGUID: 00000000000000000000000000000000
  m_OcclusionCullingData: {fileID: 0}
--- !u!104 &2
RenderSettings:
  m_ObjectHideFlags: 0
  serializedVersion: 9
  m_Fog: 0
  m_FogColor: {r: 0.5, g: 0.5, b: 0.5, a: 1}
  m_FogMode: 3
  m_FogDensity: 0.01
  m_LinearFogStart: 0
  m_LinearFogEnd: 300
  m_AmbientSkyColor: {r: 0.212, g: 0.227, b: 0.259, a: 1}
  m_AmbientEquatorColor: {r: 0.114, g: 0.125, b: 0.133, a: 1}
  m_AmbientGroundColor: {r: 0.047, g: 0.043, b: 0.035, a: 1}
  m_AmbientIntensity: 1
  m_AmbientMode: 3
  m_SubtractiveShadowColor: {r: 0.42, g: 0.478, b: 0.627, a: 1}
  m_SkyboxMaterial: {fileID: 0}
  m_HaloStrength: 0.5
  m_FlareStrength: 1
  m_FlareFadeSpeed: 3
  m_HaloTexture: {fileID: 0}
  m_SpotCookie: {fileID: 10001, guid: 0000000000000000e000000000000000, type: 0}
  m_DefaultReflectionMode: 0
  m_DefaultReflectionResolution: 128
  m_ReflectionBounces: 1
  m_ReflectionIntensity: 1
  m_CustomReflection: {fileID: 0}
  m_Sun: {fileID: 0}
  m_IndirectSpecularColor: {r: 0, g: 0, b: 0, a: 1}
  m_UseRadianceAmbientProbe: 0
--- !u!157 &3
LightmapSettings:
  m_ObjectHideFlags: 0
  serializedVersion: 11
  m_GIWorkflowMode: 1
  m_GISettings:
    serializedVersion: 2
    m_BounceScale: 1
    m_IndirectOutputScale: 1
    m_AlbedoBoost: 1
    m_TemporalCoherenceThreshold: 1
    m_EnvironmentLightingMode: 0
    m_EnableBakedLightmaps: 0
    m_EnableRealtimeLightmaps: 0
  m_LightmapEditorSettings:
    serializedVersion: 10
    m_Resolution: 2
    m_BakeResolution: 40
    m_AtlasSize: 1024
    m_AO: 0
    m_AOMaxDistance: 1
    m_CompAOExponent: 1
    m_CompAOExponentDirect: 0
    m_Padding: 2
    m_LightmapParameters: {fileID: 0}
    m_LightmapsBakeMode: 1
    m_TextureCompression: 1
    m_FinalGather: 0
    m_FinalGatherFiltering: 1
    m_FinalGatherRayCount: 256
    m_ReflectionCompression: 2
    m_MixedBakeMode: 2
    m_BakeBackend: 1
    m_PVRSampling: 1
    m_PVRDirectSampleCount: 32
    m_PVRSampleCount: 500
    m_PVRBounces: 2
    m_PVRFilterTypeDirect: 0
    m_PVRFilterTypeIndirect: 0
    m_PVRFilterTypeAO: 0
    m_PVRFilteringMode: 1
    m_PVRCulling: 1
    m_PVRFilteringGaussRadiusDirect: 1
    m_PVRFilteringGaussRadiusIndirect: 5
    m_PVRFilteringGaussRadiusAO: 2
    m_PVRFilteringAtrousPositionSigmaDirect: 0.5
    m_PVRFilteringAtrousPositionSigmaIndirect: 2
    m_PVRFilteringAtrousPositionSigmaAO: 1
    m_ShowResolutionOverlay: 1
  m_LightingDataAsset: {fileID: 0}
  m_UseShadowmask: 1
--- !u!196 &4
NavMeshSettings:
  serializedVersion: 2
  m_ObjectHideFlags: 0
  m_BuildSettings:
    serializedVersion: 2
    agentTypeID: 0
    agentRadius: 0.5
    agentHeight: 2
    agentSlope: 45
    agentClimb: 0.4
    ledgeDropHeight: 0
    maxJumpAcrossDistance: 0
    minRegionArea: 2
    manualCellSize: 0
    cellSize: 0.16666667
    manualTileSize: 0
    tileSize: 256
    accuratePlacement: 0
    debug:
      m_Flags: 0
  m_NavMeshData: {fileID: 0}
--- !u!1 &217406832
GameObject:
  m_ObjectHideFlags: 0
  m_CorrespondingSourceObject: {fileID: 0}
  m_PrefabInternal: {fileID: 0}
  serializedVersion: 6
  m_Component:
  - component: {fileID: 217406833}
  - component: {fileID: 217406834}
  m_Layer: 0
  m_Name: Wave 1
  m_TagString: Untagged
  m_Icon: {fileID: 0}
  m_NavMeshLayer: 0
  m_StaticEditorFlags: 0
  m_IsActive: 1
--- !u!4 &217406833
Transform:
  m_ObjectHideFlags: 0
  m_CorrespondingSourceObject: {fileID: 0}
  m_PrefabInternal: {fileID: 0}
  m_GameObject: {fileID: 217406832}
  m_LocalRotation: {x: 0, y: 0, z: 0, w: 1}
  m_LocalPosition: {x: 0, y: 0, z: 0}
  m_LocalScale: {x: 1, y: 1, z: 1}
  m_Children: []
  m_Father: {fileID: 1677630055}
  m_RootOrder: 0
  m_LocalEulerAnglesHint: {x: 0, y: 0, z: 0}
--- !u!114 &217406834
MonoBehaviour:
  m_ObjectHideFlags: 0
  m_CorrespondingSourceObject: {fileID: 0}
  m_PrefabInternal: {fileID: 0}
  m_GameObject: {fileID: 217406832}
  m_Enabled: 1
  m_EditorHideFlags: 0
  m_Script: {fileID: 11500000, guid: 7659f1c4bcbb36a478946f84fd2e1a30, type: 3}
  m_Name: 
  m_EditorClassIdentifier: 
  Waves:
  - WaveGroups:
    - PlanePrefab: {fileID: 114748342171858420, guid: 410965931cc5dca489aeb35840590951,
        type: 2}
      SpawnRate: 1
    WaveDuration: 20
  - WaveGroups:
    - PlanePrefab: {fileID: 114026877494056698, guid: 60a141c2b9706754bad674c48146506c,
        type: 2}
      SpawnRate: 1.5
    WaveDuration: 20
--- !u!1001 &622786124
Prefab:
  m_ObjectHideFlags: 0
  serializedVersion: 2
  m_Modification:
    m_TransformParent: {fileID: 1409593808}
    m_Modifications:
    - target: {fileID: 4341528103020256, guid: 2af32cdb3762d264d879fba753cf4e74, type: 2}
      propertyPath: m_LocalPosition.x
      value: -0.6
      objectReference: {fileID: 0}
    - target: {fileID: 4341528103020256, guid: 2af32cdb3762d264d879fba753cf4e74, type: 2}
      propertyPath: m_LocalPosition.y
      value: -19.85
      objectReference: {fileID: 0}
    - target: {fileID: 4341528103020256, guid: 2af32cdb3762d264d879fba753cf4e74, type: 2}
      propertyPath: m_LocalPosition.z
      value: 0
      objectReference: {fileID: 0}
    - target: {fileID: 4341528103020256, guid: 2af32cdb3762d264d879fba753cf4e74, type: 2}
      propertyPath: m_LocalRotation.x
      value: 0
      objectReference: {fileID: 0}
    - target: {fileID: 4341528103020256, guid: 2af32cdb3762d264d879fba753cf4e74, type: 2}
      propertyPath: m_LocalRotation.y
      value: 0
      objectReference: {fileID: 0}
    - target: {fileID: 4341528103020256, guid: 2af32cdb3762d264d879fba753cf4e74, type: 2}
      propertyPath: m_LocalRotation.z
      value: 0
      objectReference: {fileID: 0}
    - target: {fileID: 4341528103020256, guid: 2af32cdb3762d264d879fba753cf4e74, type: 2}
      propertyPath: m_LocalRotation.w
      value: 1
      objectReference: {fileID: 0}
    - target: {fileID: 4341528103020256, guid: 2af32cdb3762d264d879fba753cf4e74, type: 2}
      propertyPath: m_RootOrder
      value: 0
      objectReference: {fileID: 0}
    m_RemovedComponents: []
  m_SourcePrefab: {fileID: 100100000, guid: 2af32cdb3762d264d879fba753cf4e74, type: 2}
  m_IsPrefabAsset: 0
--- !u!4 &622786125 stripped
Transform:
  m_CorrespondingSourceObject: {fileID: 4341528103020256, guid: 2af32cdb3762d264d879fba753cf4e74,
    type: 2}
  m_PrefabInternal: {fileID: 622786124}
--- !u!1001 &742528754
Prefab:
  m_ObjectHideFlags: 0
  serializedVersion: 2
  m_Modification:
    m_TransformParent: {fileID: 0}
    m_Modifications:
    - target: {fileID: 4778040415564424, guid: ccea619f3475d1945b97a33c84aac4ba, type: 2}
      propertyPath: m_LocalPosition.x
      value: 14.950897
      objectReference: {fileID: 0}
    - target: {fileID: 4778040415564424, guid: ccea619f3475d1945b97a33c84aac4ba, type: 2}
      propertyPath: m_LocalPosition.y
      value: 2.6202607
      objectReference: {fileID: 0}
    - target: {fileID: 4778040415564424, guid: ccea619f3475d1945b97a33c84aac4ba, type: 2}
      propertyPath: m_LocalPosition.z
      value: 0.39238036
      objectReference: {fileID: 0}
    - target: {fileID: 4778040415564424, guid: ccea619f3475d1945b97a33c84aac4ba, type: 2}
      propertyPath: m_LocalRotation.x
      value: 0
      objectReference: {fileID: 0}
    - target: {fileID: 4778040415564424, guid: ccea619f3475d1945b97a33c84aac4ba, type: 2}
      propertyPath: m_LocalRotation.y
      value: 0
      objectReference: {fileID: 0}
    - target: {fileID: 4778040415564424, guid: ccea619f3475d1945b97a33c84aac4ba, type: 2}
      propertyPath: m_LocalRotation.z
      value: 0
      objectReference: {fileID: 0}
    - target: {fileID: 4778040415564424, guid: ccea619f3475d1945b97a33c84aac4ba, type: 2}
      propertyPath: m_LocalRotation.w
      value: 1
      objectReference: {fileID: 0}
    - target: {fileID: 4778040415564424, guid: ccea619f3475d1945b97a33c84aac4ba, type: 2}
      propertyPath: m_RootOrder
      value: 0
      objectReference: {fileID: 0}
    - target: {fileID: 224447737781959044, guid: ccea619f3475d1945b97a33c84aac4ba,
        type: 2}
      propertyPath: m_AnchorMin.y
      value: 0
      objectReference: {fileID: 0}
    - target: {fileID: 224447737781959044, guid: ccea619f3475d1945b97a33c84aac4ba,
        type: 2}
      propertyPath: m_AnchorMax.y
      value: 0
      objectReference: {fileID: 0}
    - target: {fileID: 224447737781959044, guid: ccea619f3475d1945b97a33c84aac4ba,
        type: 2}
      propertyPath: m_AnchoredPosition.y
      value: 0
      objectReference: {fileID: 0}
    - target: {fileID: 224447737781959044, guid: ccea619f3475d1945b97a33c84aac4ba,
        type: 2}
      propertyPath: m_SizeDelta.x
      value: 0
      objectReference: {fileID: 0}
    - target: {fileID: 224488060785748370, guid: ccea619f3475d1945b97a33c84aac4ba,
        type: 2}
      propertyPath: m_AnchorMin.y
      value: 0
      objectReference: {fileID: 0}
    - target: {fileID: 224488060785748370, guid: ccea619f3475d1945b97a33c84aac4ba,
        type: 2}
      propertyPath: m_AnchorMax.y
      value: 0
      objectReference: {fileID: 0}
    - target: {fileID: 224488060785748370, guid: ccea619f3475d1945b97a33c84aac4ba,
        type: 2}
      propertyPath: m_AnchoredPosition.x
      value: 0
      objectReference: {fileID: 0}
    - target: {fileID: 224488060785748370, guid: ccea619f3475d1945b97a33c84aac4ba,
        type: 2}
      propertyPath: m_AnchoredPosition.y
      value: 0
      objectReference: {fileID: 0}
    - target: {fileID: 224488060785748370, guid: ccea619f3475d1945b97a33c84aac4ba,
        type: 2}
      propertyPath: m_SizeDelta.x
      value: 0
      objectReference: {fileID: 0}
    - target: {fileID: 224276706544176066, guid: ccea619f3475d1945b97a33c84aac4ba,
        type: 2}
      propertyPath: m_AnchorMin.y
      value: 0
      objectReference: {fileID: 0}
    - target: {fileID: 224276706544176066, guid: ccea619f3475d1945b97a33c84aac4ba,
        type: 2}
      propertyPath: m_AnchorMax.y
      value: 0
      objectReference: {fileID: 0}
    - target: {fileID: 224276706544176066, guid: ccea619f3475d1945b97a33c84aac4ba,
        type: 2}
      propertyPath: m_AnchoredPosition.x
      value: 0
      objectReference: {fileID: 0}
    - target: {fileID: 224276706544176066, guid: ccea619f3475d1945b97a33c84aac4ba,
        type: 2}
      propertyPath: m_AnchoredPosition.y
      value: 0
      objectReference: {fileID: 0}
    - target: {fileID: 224276706544176066, guid: ccea619f3475d1945b97a33c84aac4ba,
        type: 2}
      propertyPath: m_SizeDelta.x
      value: 0
      objectReference: {fileID: 0}
    - target: {fileID: 224034386490032750, guid: ccea619f3475d1945b97a33c84aac4ba,
        type: 2}
      propertyPath: m_LocalPosition.z
      value: 0
      objectReference: {fileID: 0}
    m_RemovedComponents: []
  m_SourcePrefab: {fileID: 100100000, guid: ccea619f3475d1945b97a33c84aac4ba, type: 2}
  m_IsPrefabAsset: 0
--- !u!1 &1409593806
GameObject:
  m_ObjectHideFlags: 0
  m_CorrespondingSourceObject: {fileID: 0}
  m_PrefabInternal: {fileID: 0}
  serializedVersion: 6
  m_Component:
  - component: {fileID: 1409593808}
  - component: {fileID: 1409593807}
  m_Layer: 0
  m_Name: Turret Tracker
  m_TagString: Untagged
  m_Icon: {fileID: 0}
  m_NavMeshLayer: 0
  m_StaticEditorFlags: 0
  m_IsActive: 1
--- !u!114 &1409593807
MonoBehaviour:
  m_ObjectHideFlags: 0
  m_CorrespondingSourceObject: {fileID: 0}
  m_PrefabInternal: {fileID: 0}
  m_GameObject: {fileID: 1409593806}
  m_Enabled: 1
  m_EditorHideFlags: 0
  m_Script: {fileID: 11500000, guid: 8e968e56fd10993408dd8806a5df3688, type: 3}
  m_Name: 
  m_EditorClassIdentifier: 
  AvailableTurretPrefabs:
  - {fileID: 114912230569648630, guid: be35edcf14959db4297f7600a62b4f9c, type: 2}
  - {fileID: 114257057410614062, guid: 2ddeddb6ef5613e45aed6b6a2ef6f52d, type: 2}
  LoseWhenAllTurretsDestroyed: 1
--- !u!4 &1409593808
Transform:
  m_ObjectHideFlags: 0
  m_CorrespondingSourceObject: {fileID: 0}
  m_PrefabInternal: {fileID: 0}
  m_GameObject: {fileID: 1409593806}
  m_LocalRotation: {x: 0, y: 0, z: 0, w: 1}
  m_LocalPosition: {x: 0, y: 0, z: 0}
  m_LocalScale: {x: 1, y: 1, z: 1}
  m_Children:
  - {fileID: 622786125}
  - {fileID: 1466723640}
  m_Father: {fileID: 0}
  m_RootOrder: 1
  m_LocalEulerAnglesHint: {x: 0, y: 0, z: 0}
--- !u!1001 &1466723639
Prefab:
  m_ObjectHideFlags: 0
  serializedVersion: 2
  m_Modification:
    m_TransformParent: {fileID: 1409593808}
    m_Modifications:
    - target: {fileID: 4341528103020256, guid: 2af32cdb3762d264d879fba753cf4e74, type: 2}
      propertyPath: m_LocalPosition.x
      value: 53.6
      objectReference: {fileID: 0}
    - target: {fileID: 4341528103020256, guid: 2af32cdb3762d264d879fba753cf4e74, type: 2}
      propertyPath: m_LocalPosition.y
      value: -19.85
      objectReference: {fileID: 0}
    - target: {fileID: 4341528103020256, guid: 2af32cdb3762d264d879fba753cf4e74, type: 2}
      propertyPath: m_LocalPosition.z
      value: 0
      objectReference: {fileID: 0}
    - target: {fileID: 4341528103020256, guid: 2af32cdb3762d264d879fba753cf4e74, type: 2}
      propertyPath: m_LocalRotation.x
      value: 0
      objectReference: {fileID: 0}
    - target: {fileID: 4341528103020256, guid: 2af32cdb3762d264d879fba753cf4e74, type: 2}
      propertyPath: m_LocalRotation.y
      value: 0
      objectReference: {fileID: 0}
    - target: {fileID: 4341528103020256, guid: 2af32cdb3762d264d879fba753cf4e74, type: 2}
      propertyPath: m_LocalRotation.z
      value: 0
      objectReference: {fileID: 0}
    - target: {fileID: 4341528103020256, guid: 2af32cdb3762d264d879fba753cf4e74, type: 2}
      propertyPath: m_LocalRotation.w
      value: 1
      objectReference: {fileID: 0}
    - target: {fileID: 4341528103020256, guid: 2af32cdb3762d264d879fba753cf4e74, type: 2}
      propertyPath: m_RootOrder
      value: 1
      objectReference: {fileID: 0}
    - target: {fileID: 1204629750579430, guid: 2af32cdb3762d264d879fba753cf4e74, type: 2}
      propertyPath: m_Name
      value: Slot
      objectReference: {fileID: 0}
    m_RemovedComponents: []
  m_SourcePrefab: {fileID: 100100000, guid: 2af32cdb3762d264d879fba753cf4e74, type: 2}
  m_IsPrefabAsset: 0
--- !u!4 &1466723640 stripped
Transform:
  m_CorrespondingSourceObject: {fileID: 4341528103020256, guid: 2af32cdb3762d264d879fba753cf4e74,
    type: 2}
  m_PrefabInternal: {fileID: 1466723639}
--- !u!1 &1677630053
GameObject:
  m_ObjectHideFlags: 0
  m_CorrespondingSourceObject: {fileID: 0}
  m_PrefabInternal: {fileID: 0}
  serializedVersion: 6
  m_Component:
  - component: {fileID: 1677630055}
  - component: {fileID: 1677630054}
  - component: {fileID: 1677630056}
  m_Layer: 0
  m_Name: Wave Orchestrator
  m_TagString: Untagged
  m_Icon: {fileID: 0}
  m_NavMeshLayer: 0
  m_StaticEditorFlags: 0
  m_IsActive: 1
--- !u!114 &1677630054
MonoBehaviour:
  m_ObjectHideFlags: 0
  m_CorrespondingSourceObject: {fileID: 0}
  m_PrefabInternal: {fileID: 0}
  m_GameObject: {fileID: 1677630053}
  m_Enabled: 1
  m_EditorHideFlags: 0
  m_Script: {fileID: 11500000, guid: 97b38a6caa29e624caab82943c05d98a, type: 3}
  m_Name: 
  m_EditorClassIdentifier: 
--- !u!4 &1677630055
Transform:
  m_ObjectHideFlags: 0
  m_CorrespondingSourceObject: {fileID: 0}
  m_PrefabInternal: {fileID: 0}
  m_GameObject: {fileID: 1677630053}
  m_LocalRotation: {x: 0, y: 0, z: 0, w: 1}
  m_LocalPosition: {x: 0, y: 20.5, z: 0}
  m_LocalScale: {x: 1, y: 1, z: 1}
  m_Children:
  - {fileID: 217406833}
  m_Father: {fileID: 0}
  m_RootOrder: 2
  m_LocalEulerAnglesHint: {x: 0, y: 0, z: 0}
--- !u!114 &1677630056
MonoBehaviour:
  m_ObjectHideFlags: 0
  m_CorrespondingSourceObject: {fileID: 0}
  m_PrefabInternal: {fileID: 0}
  m_GameObject: {fileID: 1677630053}
  m_Enabled: 1
  m_EditorHideFlags: 0
  m_Script: {fileID: 11500000, guid: 9725797c25d569844b4fd99ebdbc9a86, type: 3}
  m_Name: 
  m_EditorClassIdentifier: 
--- !u!1001 &1947260542
Prefab:
  m_ObjectHideFlags: 0
  serializedVersion: 2
  m_Modification:
    m_TransformParent: {fileID: 0}
    m_Modifications:
    - target: {fileID: 4353730174552448, guid: 53d65e3d89a0e9f46a4d4d440aae025f, type: 2}
      propertyPath: m_LocalPosition.x
      value: 0
      objectReference: {fileID: 0}
    - target: {fileID: 4353730174552448, guid: 53d65e3d89a0e9f46a4d4d440aae025f, type: 2}
      propertyPath: m_LocalPosition.y
      value: -7
      objectReference: {fileID: 0}
    - target: {fileID: 4353730174552448, guid: 53d65e3d89a0e9f46a4d4d440aae025f, type: 2}
      propertyPath: m_LocalPosition.z
      value: 0
      objectReference: {fileID: 0}
    - target: {fileID: 4353730174552448, guid: 53d65e3d89a0e9f46a4d4d440aae025f, type: 2}
      propertyPath: m_LocalRotation.x
      value: -0
      objectReference: {fileID: 0}
    - target: {fileID: 4353730174552448, guid: 53d65e3d89a0e9f46a4d4d440aae025f, type: 2}
      propertyPath: m_LocalRotation.y
      value: -0
      objectReference: {fileID: 0}
    - target: {fileID: 4353730174552448, guid: 53d65e3d89a0e9f46a4d4d440aae025f, type: 2}
      propertyPath: m_LocalRotation.z
      value: -0
      objectReference: {fileID: 0}
    - target: {fileID: 4353730174552448, guid: 53d65e3d89a0e9f46a4d4d440aae025f, type: 2}
      propertyPath: m_LocalRotation.w
      value: 1
      objectReference: {fileID: 0}
    - target: {fileID: 4353730174552448, guid: 53d65e3d89a0e9f46a4d4d440aae025f, type: 2}
      propertyPath: m_RootOrder
      value: 3
      objectReference: {fileID: 0}
    m_RemovedComponents: []
  m_SourcePrefab: {fileID: 100100000, guid: 53d65e3d89a0e9f46a4d4d440aae025f, type: 2}
  m_IsPrefabAsset: 0
